                        .module main.c
                        .area text(rom, con, rel)
 0000                   .dbfile ./main.c
 0000                   .dbfile C:\Users\uozumi\DOCUME~1\PSOCDE~1.4PR\SEA6C0~1\SERVOM~1\SERVOM~1\main.c
 0000                   .dbfunc e sleep113us _sleep113us fV
 0000           ;              i -> X+0
 0000           _sleep113us::
 0000                   .dbline -1
 0000 10                push X
 0001 4F                mov X,SP
 0002 3801              add SP,1
 0004                   .dbline 18
 0004           ; //----------------------------------------------------------------------------
 0004           ; // C main line
 0004           ; //----------------------------------------------------------------------------
 0004           ; 
 0004           ; #include <m8c.h>        // part specific constants and macros
 0004           ; #include "PSoCAPI.h"    // PSoC API definitions for all User Modules
 0004           ; #include "uartRx.h"
 0004           ; 
 0004           ; #define MYADDRESS             37
 0004           ; #define COMPARE         255
 0004           ; #define WRITE                 0
 0004           ; #define READ                  1
 0004           ; #define WRITE_TO_ME           2
 0004           ; #define WRITE_TO_OTHER        3
 0004           ; #define READ_FROM_ME  4
 0004           ; #define READ_FROM_OTHER       5
 0004           ; 
 0004           ; void sleep113us(void){ // @clk=24MHz
 0004                   .dbline 20
 0004           ;       char i;
 0004           ;       for (i=0;i<100;i++);
 0004 560000            mov [X+0],0
 0007 8003              xjmp L6
 0009           L3:
 0009                   .dbline 20
 0009           L4:
 0009                   .dbline 20
 0009 7700              inc [X+0]
 000B           L6:
 000B                   .dbline 20
 000B 3D0064            cmp [X+0],100
 000E CFFA              jc L3
 0010           X0:
 0010                   .dbline -2
 0010           L2:
 0010 38FF              add SP,-1
 0012 20                pop X
 0013                   .dbline 0 ; func end
 0013 7F                ret
 0014                   .dbsym l i 0 c
 0014                   .dbend
 0014                   .dbfunc e main _main fV
 0014           ;           test -> X+30
 0014           ;         status -> X+28
 0014           ;          check -> X+27
 0014           ;        address -> X+25
 0014           ;        pattern -> X+23
 0014           ;           sign -> X+21
 0014           ;           data -> X+5
 0014           ;           dust -> X+3
 0014           ;            nod -> X+2
 0014           ;              i -> X+0
 0014           _main::
 0014                   .dbline -1
 0014 10                push X
 0015 4F                mov X,SP
 0016 381F              add SP,31
 0018                   .dbline 23
 0018           ; }
 0018           ;       
 0018           ; void main (void){
 0018                   .dbline 30
 0018           ;       int i,sign,status,dust,address,pattern;
 0018           ;       char data[16],nod,check,test; //char->1byte
 0018           ;       
 0018           ;       ///-----start-----///
 0018           ;       /// 
 0018           ;       
 0018           ;       DE_1_Start();
 0018 10                push X
 0019 7C0000            xcall _DE_1_Start
 001C                   .dbline 31
 001C           ;       DE_1_On();              // H
 001C 7C0000            xcall _DE_1_On
 001F                   .dbline 32
 001F           ;       DE_1_Off();             // L
 001F 7C0000            xcall _DE_1_Off
 0022                   .dbline 34
 0022           ;       
 0022           ;       Counter8_1_Start();
 0022 7C0000            xcall _Counter8_1_Start
 0025                   .dbline 35
 0025           ;       Counter8_2_Start();
 0025 7C0000            xcall _Counter8_2_Start
 0028                   .dbline 42
 0028           ;       
 0028           ;       //LED_1_Start();
 0028           ;       //LED_1_On;                     //LOW 
 0028           ;       //LED_1_Off;            //HIGH ->なんだかしらないけど逆なので注意
 0028           ;       //LED_1_On;                     //LOW  ->なんだかしらないけど逆なので注意
 0028           ;       
 0028           ;       TX8_master_Start(TX8_PARITY_NONE);      // Enable TX8_master
 0028 5000              mov A,0
 002A 7C0000            xcall _TX8_master_Start
 002D                   .dbline 43
 002D           ;       TX8_slave_Start(TX8_PARITY_NONE);       // Enable TX8_slave
 002D 5000              mov A,0
 002F 7C0000            xcall _TX8_slave_Start
 0032 20                pop X
 0033                   .dbline 44
 0033           ;       for(i=0; i<10000; i++)  sleep113us();
 0033 560100            mov [X+1],0
 0036 560000            mov [X+0],0
 0039           L8:
 0039                   .dbline 44
 0039 9FC5              xcall _sleep113us
 003B           L9:
 003B                   .dbline 44
 003B 7701              inc [X+1]
 003D 0F0000            adc [X+0],0
 0040                   .dbline 44
 0040 5201              mov A,[X+1]
 0042 1110              sub A,16
 0044 5200              mov A,[X+0]
 0046 3180              xor A,-128
 0048 19A7              sbb A,(39 ^ 0x80)
 004A CFEE              jc L8
 004C           X2:
 004C                   .dbline 46
 004C           ;       
 004C           ;       RX8_master_Start(RX8_PARITY_NONE);      // Enable RX8_master
 004C 10                push X
 004D 5000              mov A,0
 004F 7C0000            xcall _RX8_master_Start
 0052                   .dbline 47
 0052           ;       RX8_slave_Start(RX8_PARITY_NONE);       // Enable RX8_slave
 0052 5000              mov A,0
 0054 7C0000            xcall _RX8_slave_Start
 0057 20                pop X
 0058                   .dbline 49
 0058           ;       
 0058           ;       for(i=0; i<100; i++)    sleep113us();
 0058 560100            mov [X+1],0
 005B 560000            mov [X+0],0
 005E           L12:
 005E                   .dbline 49
 005E 9FA0              xcall _sleep113us
 0060           L13:
 0060                   .dbline 49
 0060 7701              inc [X+1]
 0062 0F0000            adc [X+0],0
 0065                   .dbline 49
 0065 5201              mov A,[X+1]
 0067 1164              sub A,100
 0069 5200              mov A,[X+0]
 006B 3180              xor A,-128
 006D 1980              sbb A,(0 ^ 0x80)
 006F CFEE              jc L12
 0071           X3:
 0071                   .dbline 51
 0071           ;       
 0071           ;       M8C_EnableGInt;
 0071 7101                      or  F, 01h
 0073           
 0073                   .dbline 52
 0073           ;       RX8_master_EnableInt();
 0073 10                push X
 0074 7C0000            xcall _RX8_master_EnableInt
 0077                   .dbline 53
 0077           ;       RX8_slave_EnableInt();
 0077 7C0000            xcall _RX8_slave_EnableInt
 007A 20                pop X
 007B                   .dbline 55
 007B           ;       
 007B           ;       for(i=0; i<100; i++)    sleep113us();
 007B 560100            mov [X+1],0
 007E 560000            mov [X+0],0
 0081           L16:
 0081                   .dbline 55
 0081 9F7D              xcall _sleep113us
 0083           L17:
 0083                   .dbline 55
 0083 7701              inc [X+1]
 0085 0F0000            adc [X+0],0
 0088                   .dbline 55
 0088 5201              mov A,[X+1]
 008A 1164              sub A,100
 008C 5200              mov A,[X+0]
 008E 3180              xor A,-128
 0090 1980              sbb A,(0 ^ 0x80)
 0092 CFEE              jc L16
 0094           X4:
 0094 800B              xjmp L21
 0096           L20:
 0096                   .dbline 58
 0096           ; 
 0096           ;       /////変更点////
 0096           ;       while (RX8_master_bReadRxStatus()==RX8_RX_COMPLETE){
 0096                   .dbline 59
 0096           ;               dust=RX8_master_bReadRxData();
 0096 10                push X
 0097 7C0000            xcall _RX8_master_bReadRxData
 009A 20                pop X
 009B 5404              mov [X+4],A
 009D 560300            mov [X+3],0
 00A0                   .dbline 60
 00A0           ;       }
 00A0           L21:
 00A0                   .dbline 58
 00A0 10                push X
 00A1 7C0000            xcall _RX8_master_bReadRxStatus
 00A4 20                pop X
 00A5 3908              cmp A,8
 00A7 AFEE              jz L20
 00A9 800B              xjmp L24
 00AB           L23:
 00AB                   .dbline 61
 00AB           ;       while (RX8_slave_bReadRxStatus()==RX8_RX_COMPLETE){
 00AB                   .dbline 62
 00AB           ;               dust=RX8_slave_bReadRxData();
 00AB 10                push X
 00AC 7C0000            xcall _RX8_slave_bReadRxData
 00AF 20                pop X
 00B0 5404              mov [X+4],A
 00B2 560300            mov [X+3],0
 00B5                   .dbline 63
 00B5           ;       }
 00B5           L24:
 00B5                   .dbline 61
 00B5 10                push X
 00B6 7C0000            xcall _RX8_slave_bReadRxStatus
 00B9 20                pop X
 00BA 3908              cmp A,8
 00BC AFEE              jz L23
 00BE 8241              xjmp L27
 00C0           L26:
 00C0                   .dbline 66
 00C0           ;       
 00C0           ;       ///////ここまで
 00C0           ;       while (1){
 00C0                   .dbline 67
 00C0           ;               DE_1_Off();             // L
 00C0 10                push X
 00C1 7C0000            xcall _DE_1_Off
 00C4 20                pop X
 00C5                   .dbline 70
 00C5           ;       
 00C5           ;               ///----- receive signal from master -----///    
 00C5           ;               sign=getRxBufMasterWait();
 00C5 7C0000            xcall _getRxBufMasterWait
 00C8 5100              mov A,[__r1]
 00CA 5416              mov [X+22],A
 00CC 5100              mov A,[__r0]
 00CE 5415              mov [X+21],A
 00D0                   .dbline 73
 00D0           ;       
 00D0           ;               ///----- switch -----///
 00D0           ;               address=sign>>1;
 00D0 5216              mov A,[X+22]
 00D2 5300              mov [__r1],A
 00D4 5215              mov A,[X+21]
 00D6 67                asr A
 00D7 5300              mov [__r0],A
 00D9 6E00              rrc [__r1]
 00DB 5100              mov A,[__r1]
 00DD 541A              mov [X+26],A
 00DF 5100              mov A,[__r0]
 00E1 5419              mov [X+25],A
 00E3                   .dbline 74
 00E3           ;               if ((address&COMPARE)==MYADDRESS){
 00E3 521A              mov A,[X+26]
 00E5 550000            mov [__r0],0
 00E8 3C0000            cmp [__r0],0
 00EB B025              jnz L29
 00ED 3925              cmp A,37
 00EF B021              jnz L29
 00F1           X5:
 00F1                   .dbline 75
 00F1           ;                       if ((sign&READ)==READ)  pattern=READ_FROM_ME;
 00F1                   .dbline 75
 00F1 5216              mov A,[X+22]
 00F3 2101              and A,1
 00F5 550000            mov [__r0],0
 00F8 3C0000            cmp [__r0],0
 00FB B00D              jnz L31
 00FD 3901              cmp A,1
 00FF B009              jnz L31
 0101           X6:
 0101                   .dbline 75
 0101 561804            mov [X+24],4
 0104 561700            mov [X+23],0
 0107 8027              xjmp L30
 0109           L31:
 0109                   .dbline 76
 0109           ;                       else                                    pattern=WRITE_TO_ME;
 0109 561802            mov [X+24],2
 010C 561700            mov [X+23],0
 010F                   .dbline 77
 010F           ;               }
 010F 801F              xjmp L30
 0111           L29:
 0111                   .dbline 78
 0111           ;               else {
 0111                   .dbline 79
 0111           ;                       if ((sign&READ)==READ)  pattern=READ_FROM_OTHER;
 0111 5216              mov A,[X+22]
 0113 2101              and A,1
 0115 550000            mov [__r0],0
 0118 3C0000            cmp [__r0],0
 011B B00D              jnz L33
 011D 3901              cmp A,1
 011F B009              jnz L33
 0121           X7:
 0121                   .dbline 79
 0121 561805            mov [X+24],5
 0124 561700            mov [X+23],0
 0127 8007              xjmp L34
 0129           L33:
 0129                   .dbline 80
 0129           ;                       else                                    pattern=WRITE_TO_OTHER;
 0129 561803            mov [X+24],3
 012C 561700            mov [X+23],0
 012F           L34:
 012F                   .dbline 81
 012F           ;               } 
 012F           L30:
 012F                   .dbline 83
 012F           ;       
 012F           ;               switch (pattern){
 012F 3D1700            cmp [X+23],0
 0132 B006              jnz X8
 0134 3D1802            cmp [X+24],2
 0137 A021              jz L37
 0139           X8:
 0139 3D1700            cmp [X+23],0
 013C B006              jnz X9
 013E 3D1803            cmp [X+24],3
 0141 A147              jz L55
 0143           X9:
 0143 3D1700            cmp [X+23],0
 0146 B006              jnz X10
 0148 3D1804            cmp [X+24],4
 014B A0AE              jz L46
 014D           X10:
 014D 3D1700            cmp [X+23],0
 0150 B006              jnz X11
 0152 3D1805            cmp [X+24],5
 0155 A175              jz L60
 0157           X11:
 0157 81A8              xjmp L35
 0159           L37:
 0159                   .dbline 86
 0159           ;                       
 0159           ;                       case WRITE_TO_ME:       //write to me
 0159           ;                               nod=getRxBufMasterWait();                                                 //receive num of data
 0159 7C0000            xcall _getRxBufMasterWait
 015C 5100              mov A,[__r1]
 015E 5402              mov [X+2],A
 0160                   .dbline 87
 0160           ;                               sleep113us();                           
 0160 9E9E              xcall _sleep113us
 0162                   .dbline 88
 0162           ;                               for (i=0;i<nod;i++)     data[i]=getRxBufMasterWait(); //receive data
 0162 560100            mov [X+1],0
 0165 560000            mov [X+0],0
 0168 8018              xjmp L41
 016A           L38:
 016A                   .dbline 88
 016A 7C0000            xcall _getRxBufMasterWait
 016D 5A00              mov [__r3],X
 016F 060005            add [__r3],5
 0172 5201              mov A,[X+1]
 0174 0200              add A,[__r3]
 0176 5300              mov [__r3],A
 0178 5100              mov A,[__r1]
 017A 3F00              mvi [__r3],A
 017C           L39:
 017C                   .dbline 88
 017C 7701              inc [X+1]
 017E 0F0000            adc [X+0],0
 0181           L41:
 0181                   .dbline 88
 0181 5202              mov A,[X+2]
 0183 5300              mov [__r1],A
 0185 5201              mov A,[X+1]
 0187 1200              sub A,[__r1]
 0189 5000              mov A,0
 018B 3180              xor A,-128
 018D 5300              mov [__rX],A
 018F 5200              mov A,[X+0]
 0191 3180              xor A,-128
 0193 1A00              sbb A,[__rX]
 0195 CFD4              jc L38
 0197           X12:
 0197                   .dbline 89
 0197           ;                               TX8_slave_PutChar(WRITE);                                                 //send write signal to psoc
 0197 10                push X
 0198 5000              mov A,0
 019A 7C0000            xcall _TX8_slave_PutChar
 019D 20                pop X
 019E                   .dbline 90
 019E           ;                               TX8_slave_PutChar(nod);                                           //send num of data to psoc
 019E 10                push X
 019F 5202              mov A,[X+2]
 01A1 7C0000            xcall _TX8_slave_PutChar
 01A4 20                pop X
 01A5                   .dbline 91
 01A5           ;                               sleep113us();                                                                   
 01A5 9E59              xcall _sleep113us
 01A7                   .dbline 92
 01A7           ;                               for (i=0;i<nod;i++)     TX8_slave_PutChar(data[i]);  //send data to PSoC
 01A7 560100            mov [X+1],0
 01AA 560000            mov [X+0],0
 01AD 8018              xjmp L45
 01AF           L42:
 01AF                   .dbline 92
 01AF 5A00              mov [__r1],X
 01B1 060005            add [__r1],5
 01B4 5201              mov A,[X+1]
 01B6 0200              add A,[__r1]
 01B8 5300              mov [__r1],A
 01BA 3E00              mvi A,[__r1]
 01BC 10                push X
 01BD 7C0000            xcall _TX8_slave_PutChar
 01C0 20                pop X
 01C1           L43:
 01C1                   .dbline 92
 01C1 7701              inc [X+1]
 01C3 0F0000            adc [X+0],0
 01C6           L45:
 01C6                   .dbline 92
 01C6 5202              mov A,[X+2]
 01C8 5300              mov [__r1],A
 01CA 5201              mov A,[X+1]
 01CC 1200              sub A,[__r1]
 01CE 5000              mov A,0
 01D0 3180              xor A,-128
 01D2 5300              mov [__rX],A
 01D4 5200              mov A,[X+0]
 01D6 3180              xor A,-128
 01D8 1A00              sbb A,[__rX]
 01DA CFD4              jc L42
 01DC           X13:
 01DC                   .dbline 93
 01DC           ;                               sleep113us();
 01DC 9E22              xcall _sleep113us
 01DE                   .dbline 94
 01DE           ;                               check=getRxBufSlaveWait();                                                //receive Wack (Write acknowledge)
 01DE 7C0000            xcall _getRxBufSlaveWait
 01E1 5100              mov A,[__r1]
 01E3 541B              mov [X+27],A
 01E5                   .dbline 97
 01E5           ; 
 01E5           ;                               ///----- send Wack -----///
 01E5           ;                               DE_1_On();              // H
 01E5 10                push X
 01E6 7C0000            xcall _DE_1_On
 01E9 20                pop X
 01EA                   .dbline 98
 01EA           ;                               TX8_master_PutChar(check);
 01EA 10                push X
 01EB 521B              mov A,[X+27]
 01ED 7C0000            xcall _TX8_master_PutChar
 01F0 20                pop X
 01F1                   .dbline 99
 01F1           ;                               sleep113us();
 01F1 9E0D              xcall _sleep113us
 01F3                   .dbline 100
 01F3           ;                               DE_1_Off();             // L            
 01F3 10                push X
 01F4 7C0000            xcall _DE_1_Off
 01F7 20                pop X
 01F8                   .dbline 102
 01F8           ;                               
 01F8           ;                               break;
 01F8 8107              xjmp L36
 01FA           L46:
 01FA                   .dbline 105
 01FA           ;                                               
 01FA           ;                       case READ_FROM_ME:      //read from me
 01FA           ;                               nod=getRxBufMasterWait();                                                //receive num of data
 01FA 7C0000            xcall _getRxBufMasterWait
 01FD 5100              mov A,[__r1]
 01FF 5402              mov [X+2],A
 0201                   .dbline 106
 0201           ;                               TX8_slave_PutChar(READ);                                                 //send read signal to psoc
 0201 10                push X
 0202 5001              mov A,1
 0204 7C0000            xcall _TX8_slave_PutChar
 0207 20                pop X
 0208                   .dbline 107
 0208           ;                               TX8_slave_PutChar(nod);                                          //send num of data to psoc
 0208 10                push X
 0209 5202              mov A,[X+2]
 020B 7C0000            xcall _TX8_slave_PutChar
 020E 20                pop X
 020F                   .dbline 108
 020F           ;                               sleep113us();
 020F 9DEF              xcall _sleep113us
 0211                   .dbline 109
 0211           ;                               for (i=0;i<nod;i++)     data[i]=getRxBufSlaveWait(); //recieve data from psoc
 0211 560100            mov [X+1],0
 0214 560000            mov [X+0],0
 0217 8018              xjmp L50
 0219           L47:
 0219                   .dbline 109
 0219 7C0000            xcall _getRxBufSlaveWait
 021C 5A00              mov [__r3],X
 021E 060005            add [__r3],5
 0221 5201              mov A,[X+1]
 0223 0200              add A,[__r3]
 0225 5300              mov [__r3],A
 0227 5100              mov A,[__r1]
 0229 3F00              mvi [__r3],A
 022B           L48:
 022B                   .dbline 109
 022B 7701              inc [X+1]
 022D 0F0000            adc [X+0],0
 0230           L50:
 0230                   .dbline 109
 0230 5202              mov A,[X+2]
 0232 5300              mov [__r1],A
 0234 5201              mov A,[X+1]
 0236 1200              sub A,[__r1]
 0238 5000              mov A,0
 023A 3180              xor A,-128
 023C 5300              mov [__rX],A
 023E 5200              mov A,[X+0]
 0240 3180              xor A,-128
 0242 1A00              sbb A,[__rX]
 0244 CFD4              jc L47
 0246           X14:
 0246                   .dbline 112
 0246           ;                               
 0246           ;                               ///----- send data to master -----///
 0246           ;                               DE_1_On();              // H
 0246 10                push X
 0247 7C0000            xcall _DE_1_On
 024A 20                pop X
 024B                   .dbline 113
 024B           ;                               for (i=0;i<nod;i++){    
 024B 560100            mov [X+1],0
 024E 560000            mov [X+0],0
 0251 801A              xjmp L54
 0253           L51:
 0253                   .dbline 113
 0253                   .dbline 114
 0253           ;                                       TX8_master_PutChar(data[i]);
 0253 5A00              mov [__r1],X
 0255 060005            add [__r1],5
 0258 5201              mov A,[X+1]
 025A 0200              add A,[__r1]
 025C 5300              mov [__r1],A
 025E 3E00              mvi A,[__r1]
 0260 10                push X
 0261 7C0000            xcall _TX8_master_PutChar
 0264 20                pop X
 0265                   .dbline 115
 0265           ;                                       sleep113us();
 0265 9D99              xcall _sleep113us
 0267                   .dbline 116
 0267           ;                               }
 0267           L52:
 0267                   .dbline 113
 0267 7701              inc [X+1]
 0269 0F0000            adc [X+0],0
 026C           L54:
 026C                   .dbline 113
 026C 5202              mov A,[X+2]
 026E 5300              mov [__r1],A
 0270 5201              mov A,[X+1]
 0272 1200              sub A,[__r1]
 0274 5000              mov A,0
 0276 3180              xor A,-128
 0278 5300              mov [__rX],A
 027A 5200              mov A,[X+0]
 027C 3180              xor A,-128
 027E 1A00              sbb A,[__rX]
 0280 CFD2              jc L51
 0282           X15:
 0282                   .dbline 117
 0282           ;                               DE_1_Off();             // L
 0282 10                push X
 0283 7C0000            xcall _DE_1_Off
 0286 20                pop X
 0287                   .dbline 118
 0287           ;                               break;
 0287 8078              xjmp L36
 0289           L55:
 0289                   .dbline 121
 0289           ;                               
 0289           ;                       case WRITE_TO_OTHER:    //write to other
 0289           ;                               nod=getRxBufMasterWait();                                               //receive num of data
 0289 7C0000            xcall _getRxBufMasterWait
 028C 5100              mov A,[__r1]
 028E 5402              mov [X+2],A
 0290                   .dbline 122
 0290           ;                               sleep113us();
 0290 9D6E              xcall _sleep113us
 0292                   .dbline 123
 0292           ;                               for (i=0;i<nod;i++)     dust=getRxBufMasterWait();      //receive data
 0292 560100            mov [X+1],0
 0295 560000            mov [X+0],0
 0298 8011              xjmp L59
 029A           L56:
 029A                   .dbline 123
 029A 7C0000            xcall _getRxBufMasterWait
 029D 5100              mov A,[__r1]
 029F 5404              mov [X+4],A
 02A1 5100              mov A,[__r0]
 02A3 5403              mov [X+3],A
 02A5           L57:
 02A5                   .dbline 123
 02A5 7701              inc [X+1]
 02A7 0F0000            adc [X+0],0
 02AA           L59:
 02AA                   .dbline 123
 02AA 5202              mov A,[X+2]
 02AC 5300              mov [__r1],A
 02AE 5201              mov A,[X+1]
 02B0 1200              sub A,[__r1]
 02B2 5000              mov A,0
 02B4 3180              xor A,-128
 02B6 5300              mov [__rX],A
 02B8 5200              mov A,[X+0]
 02BA 3180              xor A,-128
 02BC 1A00              sbb A,[__rX]
 02BE CFDB              jc L56
 02C0           X16:
 02C0                   .dbline 124
 02C0           ;                               sleep113us();
 02C0 9D3E              xcall _sleep113us
 02C2                   .dbline 125
 02C2           ;                               check=getRxBufMasterWait();                                             //receive data from other psoc
 02C2 7C0000            xcall _getRxBufMasterWait
 02C5 5100              mov A,[__r1]
 02C7 541B              mov [X+27],A
 02C9                   .dbline 126
 02C9           ;                               break;
 02C9 8036              xjmp L36
 02CB           L60:
 02CB                   .dbline 129
 02CB           ;                               
 02CB           ;                       case READ_FROM_OTHER:   //read from other
 02CB           ;                               nod=getRxBufMasterWait();                                               //receive num of data
 02CB 7C0000            xcall _getRxBufMasterWait
 02CE 5100              mov A,[__r1]
 02D0 5402              mov [X+2],A
 02D2                   .dbline 130
 02D2           ;                               for (i=0;i<nod;i++)     dust=getRxBufMasterWait();      //recieve data from other
 02D2 560100            mov [X+1],0
 02D5 560000            mov [X+0],0
 02D8 8011              xjmp L64
 02DA           L61:
 02DA                   .dbline 130
 02DA 7C0000            xcall _getRxBufMasterWait
 02DD 5100              mov A,[__r1]
 02DF 5404              mov [X+4],A
 02E1 5100              mov A,[__r0]
 02E3 5403              mov [X+3],A
 02E5           L62:
 02E5                   .dbline 130
 02E5 7701              inc [X+1]
 02E7 0F0000            adc [X+0],0
 02EA           L64:
 02EA                   .dbline 130
 02EA 5202              mov A,[X+2]
 02EC 5300              mov [__r1],A
 02EE 5201              mov A,[X+1]
 02F0 1200              sub A,[__r1]
 02F2 5000              mov A,0
 02F4 3180              xor A,-128
 02F6 5300              mov [__rX],A
 02F8 5200              mov A,[X+0]
 02FA 3180              xor A,-128
 02FC 1A00              sbb A,[__rX]
 02FE CFDB              jc L61
 0300           X17:
 0300                   .dbline 131
 0300           ;                               break;
 0300           L35:
 0300           L36:
 0300                   .dbline 133
 0300           ;               }
 0300           ;       }
 0300           L27:
 0300                   .dbline 66
 0300 8DBF              xjmp L26
 0302           X1:
 0302                   .dbline -2
 0302           L7:
 0302 38E1              add SP,-31
 0304 20                pop X
 0305                   .dbline 0 ; func end
 0305 8FFF              jmp .
 0307                   .dbsym l test 30 c
 0307                   .dbsym l status 28 I
 0307                   .dbsym l check 27 c
 0307                   .dbsym l address 25 I
 0307                   .dbsym l pattern 23 I
 0307                   .dbsym l sign 21 I
 0307                   .dbsym l data 5 A[16:16]c
 0307                   .dbsym l dust 3 I
 0307                   .dbsym l nod 2 c
 0307                   .dbsym l i 0 I
 0307                   .dbend
